[gd_resource type="Resource" script_class="Item" load_steps=2 format=3 uid="uid://blnxhn2mo6tyj"]

[ext_resource type="Script" path="res://resources/items/Item.gd" id="1_oskh1"]

[resource]
script = ExtResource("1_oskh1")
item_name = "shedkey"
item_type = 0
